{
  "required": true,
  "package": "com.biom4st3r.moenchantments.mixin",
  "compatibilityLevel": "JAVA_8",
  "client": [
    "ItemStackClientMixin",
    "MinecraftClientMixin"
  ],
  "injectors": {
    "defaultRequire": 1
  }
}
