{
  "required": true,
  "package": "com.biom4st3r.moenchantments.mixin",
  "compatibilityLevel": "JAVA_8",
  "requires": {
    "fabric": "*"
  },
  "mixins": [
    "EnchantmentHelperMixin",
    "BlockMixin",
    "LivingEntityMixin",
    "PlayerEntityMixin",
    "ItemStackMixin",
    "ThrownPotionEntityMixin"
  ],
  "injectors": {
    "defaultRequire": 1
  }
}
